…
For a cursory analysis, we can start off by visualizing correct
vs. partially correct vs. incorrect answers:

``` r

are_task_data <- vitals_bind(are_task)

are_task_data
```

    ## # A tibble: 29 × 4
    ##    task     id                          score metadata         
    ##    <chr>    <chr>                       <ord> <list>           
    ##  1 are_task after-stat-bar-heights      I     <tibble [1 × 10]>
    ##  2 are_task conditional-grouped-summary C     <tibble [1 × 10]>
    ##  3 are_task correlated-delays-reasoning P     <tibble [1 × 10]>
    ##  4 are_task curl-http-get               P     <tibble [1 × 10]>
    ##  5 are_task dropped-level-legend        I     <tibble [1 × 10]>
    ##  6 are_task filter-multiple-conditions  C     <tibble [1 × 10]>
    ##  7 are_task geocode-req-perform         C     <tibble [1 × 10]>
    ##  8 are_task group-by-summarize-message  C     <tibble [1 × 10]>
    ##  9 are_task grouped-filter-summarize    P     <tibble [1 × 10]>
    ## 10 are_task grouped-geom-line           C     <tibble [1 × 10]>
    ## # ℹ 19 more rows
…
